Portable Routines for Running with MRP with CCES data • ccesMRPrun
…
class(fit)

## [1] "brmsfit"

Poststratification

We can take predicted values from each of the MCMC draws, and aggregate it up to the area of interest.

Here we use the poststratification data to fit on. We use the acs_GA built-in data here, but refer to ccesMRPprep to make a data that is your own.

drw <- poststrat_draws(fit, poststrat_tgt = acs_GA)
drw

## # A tibble: 56,000 x 3
##    cd     iter p_mrp
##  * <chr> <dbl> <dbl>
##  1 GA-01     1 0.429
##  2 GA-01     2 0.390
##  3 GA-01     3 0.517
##  4 GA-01     4 0.392
##  5 GA-01     5 0.574
##  6 GA-01     6 0.504
##  7 GA-01     7 0.536
##  8 GA-01     8 0.340
##  9 GA-01     9 0.425
## 10 GA-01    10 0.412
## # … with 55,990 more rows
…
