…
drw <- poststrat_draws(fit, poststrat, cc_count)
```

    ## Warning: The `x` argument of `as_tibble.matrix()` must have column names if `.name_repair` is omitted as of tibble 2.0.0.
    ## Using compatibility `.name_repair`.
    ## This warning is displayed once every 8 hours.
    ## Call `lifecycle::last_warnings()` to see where this warning was generated.

``` r
drw
```

    ## # A tibble: 14,000 x 4
    ##    qID     cd     iter p_mrp
    ##    <chr>   <chr> <dbl> <dbl>
    ##  1 turnout GA-01     1 0.335
    ##  2 turnout GA-01     2 0.597
    ##  3 turnout GA-01     3 0.711
    ##  4 turnout GA-01     4 0.683
    ##  5 turnout GA-01     5 0.643
    ##  6 turnout GA-01     6 0.679
    ##  7 turnout GA-01     7 0.607
    ##  8 turnout GA-01     8 0.662
    ##  9 turnout GA-01     9 0.534
    ## 10 turnout GA-01    10 0.716
    ## # … with 13,990 more rows
…
