Take output from brms prediction and turn to tidy form — pivot_celldraws_longer • ccesMRPrun
…
#> [1] 4000  980

# tidy out
out <- pivot_celldraws_longer(mod_draws = posterior_draws,
                              data_strat = pred_df,
                              yhat_name = "pred_n_yes")

dim(out)

#> [1] 3920000      11
select(out, cd, n_response, cell, iter, pred_n_yes)

#> # A tibble: 3,920,000 x 5
#>    cd    n_response  cell  iter pred_n_yes
#>    <chr>      <dbl> <int> <dbl>      <dbl>
#>  1 GA-01       1082     1     1       637.
#>  2 GA-01       1082     1     2       429.
#>  3 GA-01       1082     1     3       506.
#>  4 GA-01       1082     1     4       412.
#>  5 GA-01       1082     1     5       485.
#>  6 GA-01       1082     1     6       555.
#>  7 GA-01       1082     1     7       527.
#>  8 GA-01       1082     1     8       513.
#>  9 GA-01       1082     1     9       394.
#> 10 GA-01       1082     1    10       439.
#> # … with 3,919,990 more rows
…
