Get MCMC draws of post-stratified estimate of demog x cd cells — poststrat_draws • ccesMRPrun
…
#> # A tibble: 6 × 8
#>    year cd    female educ         age            count clinton_vote clinton_vote_2p…
#>   <dbl> <chr>  <int> <fct>        <fct>          <dbl>        <dbl>            <dbl>
#> 1  2016 GA-01      0 HS or Less   18 to 24 years  1082        0.409            0.420
#> 2  2016 GA-01      0 HS or Less   18 to 24 years  6603        0.409            0.420
#> 3  2016 GA-01      0 HS or Less   18 to 24 years 16412        0.409            0.420
#> 4  2016 GA-01      0 Some College 18 to 24 years 14732        0.409            0.420
#> 5  2016 GA-01      0 Some College 18 to 24 years  1214        0.409            0.420
#> 6  2016 GA-01      0 4-Year       18 to 24 years  1810        0.409            0.420

drw_GA <- poststrat_draws(fit_GA, poststrat_tgt = acs_GA, area_var = "cd")
drw_GA

#> # A tibble: 56,000 × 3
#>    cd     iter p_mrp
#>    <chr> <dbl> <dbl>
#>  1 GA-01     1 0.496
#>  2 GA-01     2 0.484
#>  3 GA-01     3 0.469
#>  4 GA-01     4 0.447
#>  5 GA-01     5 0.414
#>  6 GA-01     6 0.490
#>  7 GA-01     7 0.429
#>  8 GA-01     8 0.491
#>  9 GA-01     9 0.427
#> 10 GA-01    10 0.435
#> # … with 55,990 more rows
…
