Post-stratification vs. Aggregate Regression Adjustment • ccesMRPrun
…
#> Mean chain execution time: 0.3 seconds.
#> Total execution time: 0.8 seconds.
#> Start sampling
#> Running MCMC with 4 chains, at most 2 in parallel...
#> 
#> Chain 1 finished in 0.4 seconds.
#> Chain 2 finished in 0.4 seconds.
#> Chain 3 finished in 0.4 seconds.
#> Chain 4 finished in 0.4 seconds.
#> 
#> All 4 chains finished successfully.
#> Mean chain execution time: 0.4 seconds.
#> Total execution time: 1.0 seconds.
mrp_df
#> # A tibble: 42 × 15
#>    spec    cd    p_raw  p_wt n_raw se_raw  n_wt  se_wt p_mrp_est p_mrp_se
#>    <chr>   <chr> <dbl> <dbl> <int>  <dbl> <dbl>  <dbl>     <dbl>    <dbl>
#>  1 omitted GA-01 0.344 0.530   128 0.0420  58.9 0.0650     0.337   0.0382
#>  2 omitted GA-02 0.353 0.584   116 0.0444  43.9 0.0744     0.345   0.0392
#>  3 omitted GA-03 0.391 0.474   138 0.0415  87.9 0.0533     0.378   0.0388
#>  4 omitted GA-04 0.266 0.380   207 0.0307 126.  0.0432     0.272   0.0294
#>  5 omitted GA-05 0.219 0.436   187 0.0303  57.9 0.0652     0.233   0.0290
#>  6 omitted GA-06 0.113 0.162   141 0.0267 103.  0.0363     0.154   0.0310
#>  7 omitted GA-07 0.226 0.322   146 0.0346  90.0 0.0493     0.241   0.0328
#>  8 omitted GA-08 0.345 0.500   113 0.0447  42.9 0.0764     0.339   0.0406
#>  9 omitted GA-09 0.343 0.457   134 0.0410  76.3 0.0570     0.338   0.0376
#> 10 omitted GA-10 0.380 0.498   142 0.0407  88.4 0.0532     0.369   0.0380
#> # … with 32 more rows, and 5 more variables: p_mrp_050 <dbl>, p_mrp_100 <dbl>,
#> #   p_mrp_900 <dbl>, p_mrp_950 <dbl>, prop_HS_truth <dbl>
…
Instead of including the aggregate information, others might opt to model a synthetic joint distribution. The ccesMRPprep function provides several methods to compute such a synthetic table.

acs_syn_mlogit <- synth_mlogit(educ ~ female + age,
                               microdata = cces_GA,
                               poptable = acs_df,  # internally will be treated as if we don't know education
                               area_var = "cd")

On average, this produces a model where the margins are smoothed out nationally. In the CCES survey sample, 31% have a “HS or Less” degree, so it seems like the numbers match that. This is not surprising because there are CD “fixed effects” not captured by gender and age, but it is nonethless troubling for MRP.

The ccesMRPprep package provide two other approaches to estimating the joint – these incorporate another source of information, which is the margins that are available.

edu_margins <- collapse_table(acs_GA, area_var = "cd", X_vars = "educ", 
                              count_var = "count", new_name = "count")
edu_margins
#> # A tibble: 56 × 3
#>    cd    educ          count
#>    <chr> <fct>         <dbl>
#>  1 GA-01 HS or Less   243060
#>  2 GA-01 Some College 182614
#>  3 GA-01 4-Year        77683
#>  4 GA-01 Post-Grad     44842
#>  5 GA-02 HS or Less   271726
#>  6 GA-02 Some College 167144
#>  7 GA-02 4-Year        50349
#>  8 GA-02 Post-Grad     29694
#>  9 GA-03 HS or Less   246159
#> 10 GA-03 Some College 168159
#> # … with 46 more rows
…
