Post-stratification vs. Aggregate Regression Adjustment • ccesMRPrun
…
                  function(x) {
                    mrp_onestep(x,
                                cces_df,
                                poststrat_tgt = acs_df,
                                weight_var = "weight",
                                add_on = val)},
                  .id = "spec")
#> Compiling Stan program...
#> Start sampling
#> Compiling Stan program...
#> Start sampling
#> Compiling Stan program...
#> Start sampling
mrp_df
#> # A tibble: 42 x 11
#>    spec  cd    p_raw  p_wt n_raw p_mrp_est p_mrp_050 p_mrp_100 p_mrp_900
#>    <chr> <chr> <dbl> <dbl> <int>     <dbl>     <dbl>     <dbl>     <dbl>
#>  1 omit… GA-01 0.344 0.530   128     0.337     0.277     0.289     0.386
#>  2 omit… GA-02 0.353 0.584   116     0.345     0.280     0.293     0.398
#>  3 omit… GA-03 0.391 0.474   138     0.379     0.319     0.330     0.428
#>  4 omit… GA-04 0.266 0.380   207     0.271     0.224     0.233     0.311
#>  5 omit… GA-05 0.219 0.436   187     0.233     0.186     0.196     0.270
#>  6 omit… GA-06 0.113 0.162   141     0.154     0.105     0.115     0.194
#>  7 omit… GA-07 0.226 0.322   146     0.242     0.190     0.201     0.285
#>  8 omit… GA-08 0.345 0.500   113     0.338     0.272     0.287     0.391
#>  9 omit… GA-09 0.343 0.457   134     0.338     0.277     0.291     0.385
#> 10 omit… GA-10 0.380 0.498   142     0.369     0.307     0.320     0.418
#> # … with 32 more rows, and 2 more variables: p_mrp_950 <dbl>,
#> #   prop_HS_truth <dbl>
…
